^I:\FLOWCONTROL\TERNARYOPERATOR\TERNARY.C
I:\FLOWCONTROL\TERNARYOPERATOR\DEBUG\VC140.PDB
I:\FLOWCONTROL\TERNARYOPERATOR\DEBUG\VC140.IDB
I:\FLOWCONTROL\TERNARYOPERATOR\DEBUG\TERNARY.OBJ
^I:\CODEINCLASS_6.1A\FLOWCONTROL\TERNARYOPERATOR\TERNARY.C
I:\CODEINCLASS_6.1A\FLOWCONTROL\TERNARYOPERATOR\DEBUG\VC140.PDB
I:\CODEINCLASS_6.1A\FLOWCONTROL\TERNARYOPERATOR\DEBUG\VC140.IDB
