^D:\SCHOOL\FIRST YEAR\SECOND SEMESTER\LOW LEVEL PROGRAMMING\INTRODCUTIONTOC\GOODMORNINGC\GOODMORNINGC.C
/c /ZI /nologo /W3 /WX- /Od /Oy- /D WIN32 /D _DEBUG /D _CONSOLE /D _UNICODE /D UNICODE /Gm /EHsc /RTC1 /MDd /GS /fp:precise /Zc:wchar_t /Zc:forScope /Zc:inline /Fo"DEBUG\\" /Fd"DEBUG\VC140.PDB" /Gd /TC /analyze- D:\SCHOOL\FIRST YEAR\SECOND SEMESTER\LOW LEVEL PROGRAMMING\INTRODCUTIONTOC\GOODMORNINGC\GOODMORNINGC.C
^D:\SCHOOL\FIRST YEAR\SECOND SEMESTER\LOW LEVEL PROGRAMMING\INTRODCUTIONTOC\GOODMORNINGC\STDAFX.CPP
/c /ZI /nologo /W3 /WX- /Od /Oy- /D WIN32 /D _DEBUG /D _CONSOLE /D _UNICODE /D UNICODE /Gm /EHsc /RTC1 /MDd /GS /fp:precise /Zc:wchar_t /Zc:forScope /Zc:inline /Fo"DEBUG\\" /Fd"DEBUG\VC140.PDB" /Gd /TP /analyze- D:\SCHOOL\FIRST YEAR\SECOND SEMESTER\LOW LEVEL PROGRAMMING\INTRODCUTIONTOC\GOODMORNINGC\STDAFX.CPP
