^E:\BSC\FIRST YEAR\SECOND SEMESTER\LOW LEVEL PROGRAMMING\C PROGRAMS\INTROTOC\TYPECASTING\DEBUG\TYPECASTING.OBJ
E:\BSC\FIRST YEAR\SECOND SEMESTER\LOW LEVEL PROGRAMMING\C PROGRAMS\INTROTOC\DEBUG\TYPECASTING.ILK
E:\BSC\FIRST YEAR\SECOND SEMESTER\LOW LEVEL PROGRAMMING\C PROGRAMS\INTROTOC\DEBUG\TYPECASTING.EXE
E:\BSC\FIRST YEAR\SECOND SEMESTER\LOW LEVEL PROGRAMMING\C PROGRAMS\INTROTOC\DEBUG\TYPECASTING.PDB
