^I:\CODEINCLASS_6.1A\WORKSHEET4B_BITWISEOP\QUESTION9\QUESION9.C
I:\CODEINCLASS_6.1A\WORKSHEET4B_BITWISEOP\QUESTION9\DEBUG\VC140.PDB
I:\CODEINCLASS_6.1A\WORKSHEET4B_BITWISEOP\QUESTION9\DEBUG\VC140.IDB
I:\CODEINCLASS_6.1A\WORKSHEET4B_BITWISEOP\QUESTION9\DEBUG\QUESION9.OBJ
