^I:\WORKSHEET4B_BITWISEOP\QUESTION1\DEBUG\QUESTION1.OBJ
I:\WORKSHEET4B_BITWISEOP\DEBUG\QUESTION1.ILK
I:\WORKSHEET4B_BITWISEOP\DEBUG\QUESTION1.EXE
I:\WORKSHEET4B_BITWISEOP\DEBUG\QUESTION1.PDB
^I:\CODEINCLASS_6.1A\WORKSHEET4B_BITWISEOP\QUESTION1\DEBUG\QUESTION1.OBJ
I:\CODEINCLASS_6.1A\WORKSHEET4B_BITWISEOP\DEBUG\QUESTION1.ILK
I:\CODEINCLASS_6.1A\WORKSHEET4B_BITWISEOP\DEBUG\QUESTION1.EXE
I:\CODEINCLASS_6.1A\WORKSHEET4B_BITWISEOP\DEBUG\QUESTION1.PDB
