^E:\BSC\FIRST YEAR\SECOND SEMESTER\LOW LEVEL PROGRAMMING\C PROGRAMS\INTROTOC\MYFIRSTCPROGRAM\MYFIRSTCPROGRAM.C
/c /ZI /nologo /W3 /WX- /Od /Oy- /D WIN32 /D _DEBUG /D _CONSOLE /D _LIB /D _UNICODE /D UNICODE /Gm /EHsc /RTC1 /MDd /GS /fp:precise /Zc:wchar_t /Zc:forScope /Fo"DEBUG\\" /Fd"DEBUG\VC120.PDB" /Gd /TC /analyze- E:\BSC\FIRST YEAR\SECOND SEMESTER\LOW LEVEL PROGRAMMING\C PROGRAMS\INTROTOC\MYFIRSTCPROGRAM\MYFIRSTCPROGRAM.C
^E:\BSC\FIRST YEAR\SECOND SEMESTER\LOW LEVEL PROGRAMMING\C PROGRAMS\INTROTOC\MYFIRSTCPROGRAM\STDAFX.CPP
/c /ZI /nologo /W3 /WX- /Od /Oy- /D WIN32 /D _DEBUG /D _CONSOLE /D _LIB /D _UNICODE /D UNICODE /Gm /EHsc /RTC1 /MDd /GS /fp:precise /Zc:wchar_t /Zc:forScope /Fo"DEBUG\\" /Fd"DEBUG\VC120.PDB" /Gd /TP /analyze- E:\BSC\FIRST YEAR\SECOND SEMESTER\LOW LEVEL PROGRAMMING\C PROGRAMS\INTROTOC\MYFIRSTCPROGRAM\STDAFX.CPP
